"","Year","Type","Count"
"1",2016,"Woman",169
"2",2016,"Man",283
"3",2016,"Gender Diverse",2.5
"4",2017,"Woman",139
"5",2017,"Man",372
"6",2018,"Woman",76
"7",2018,"Man",230
"8",2019,"Man",679
"9",2019,"Woman",351
"10",2019,"Gender Diverse",2.5
"11",2020,"Gender Diverse",2.5
"12",2020,"Man",113
"13",2020,"Woman",38
